{
  "culture": "fa",
  "texts": {
    "Menu:Home": "خانه",
    "Welcome": "خوش آمدید",
    "NotFound": "آیتم مورد نظر یافت نشد",
    "EmployeeNotFound": "کارمندی با نام کاربری '{0}' یافت نشد !!!"

  }
}